[
  {
    "AgentDateTime": "2022-04-13 14:20:00.000",
    "Id": 202,
    "VaribleId": 163,
    "Value": "{\"Name\":\"ПД0601EV 200/4 от 09.04.2022\",\"Barcode\":\"2000000062679\"}",
    "IsCondition": 1,
    "InsertDateTime": "2022-04-14 08:34:23.170",
    "SourceId": 2
  },
  {
    "AgentDateTime": "2022-04-13 09:00:00.000",
    "Id": 201,
    "VaribleId": 163,
    "Value": "{\"Name\":\"ПД0601EV 200/1 от 09.04.2022\",\"Barcode\":\"2000000062648\"}",
    "IsCondition": 1,
    "InsertDateTime": "2022-04-14 08:27:35.300",
    "SourceId": 2
  },
  {
    "AgentDateTime": "2022-04-11 07:35:00.000",
    "Id": 200,
    "VaribleId": 163,
    "Value": "{\"Name\":\"ПД0601М 196/3 от 07.04.2022\",\"Barcode\":\"2000000062501\"}",
    "IsCondition": 1,
    "InsertDateTime": "2022-04-11 10:48:58.237",
    "SourceId": 2
  },
  {
    "AgentDateTime": "2022-04-10 17:00:00.000",
    "Id": 199,
    "VaribleId": 163,
    "Value": "{\"Name\":\"ПД0601М 196/2 от 07.04.2022\",\"Barcode\":\"2000000062495\"}",
    "IsCondition": 1,
    "InsertDateTime": "2022-04-11 10:46:31.493",
    "SourceId": 2
  },
  {
    "AgentDateTime": "2022-04-10 09:00:00.000",
    "Id": 198,
    "VaribleId": 163,
    "Value": "{\"Name\":\"ПД0601М 193/2 от 04.04.2022\",\"Barcode\":\"2000000062365\"}",
    "IsCondition": 1,
    "InsertDateTime": "2022-04-10 18:26:23.197",
    "SourceId": 2
  },
  {
    "AgentDateTime": "2022-04-09 19:29:58.387",
    "Id": 194,
    "VaribleId": 163,
    "Value": "{\"Name\":\"ПД0601М 191/2 от 02.04.2022\",\"Barcode\":\"2000000062181\"}",
    "IsCondition": 1,
    "InsertDateTime": "2022-04-09 19:30:22.507",
    "SourceId": 2
  },
  {
    "AgentDateTime": "2022-04-09 10:25:00.000",
    "Id": 197,
    "VaribleId": 163,
    "Value": "{\"Name\":\"ПД0601М 191/2 от 02.04.2022\",\"Barcode\":\"2000000062181\"}",
    "IsCondition": 1,
    "InsertDateTime": "2022-04-09 19:35:10.920",
    "SourceId": 2
  },
  {
    "AgentDateTime": "2022-04-09 10:25:00.000",
    "Id": 195,
    "VaribleId": 163,
    "Value": "{\"Name\":\"ПД0601М 191/2 от 02.04.2022\",\"Barcode\":\"2000000062181\"}",
    "IsCondition": 1,
    "InsertDateTime": "2022-04-09 19:31:13.690",
    "SourceId": 2
  },
  {
    "AgentDateTime": "2022-04-08 18:00:00.000",
    "Id": 196,
    "VaribleId": 163,
    "Value": "{\"Name\":\"ПД0601М 191/1 от 02.04.2022\",\"Barcode\":\"2000000062273\"}",
    "IsCondition": 1,
    "InsertDateTime": "2022-04-09 19:32:46.070",
    "SourceId": 2
  },
  {
    "AgentDateTime": "2022-04-06 17:00:00.000",
    "Id": 193,
    "VaribleId": 163,
    "Value": "{\"Name\":\"ПД0601М 191/1 от 02.04.2022\",\"Barcode\":\"2000000062273\"}",
    "IsCondition": 1,
    "InsertDateTime": "2022-04-07 18:50:45.757",
    "SourceId": 2
  },
  {
    "AgentDateTime": "2022-04-06 07:00:00.000",
    "Id": 192,
    "VaribleId": 163,
    "Value": "{\"Name\":\"ПД0601М 189/4 от 01.04.2022\",\"Barcode\":\"2000000062211\"}",
    "IsCondition": 1,
    "InsertDateTime": "2022-04-06 15:47:11.827",
    "SourceId": 2
  },
  {
    "AgentDateTime": "2022-04-04 14:00:00.000",
    "Id": 191,
    "VaribleId": 163,
    "Value": "{\"Name\":\"ПД0601М 189/1 от 01.04.2022\",\"Barcode\":\"2000000062303\"}",
    "IsCondition": 1,
    "InsertDateTime": "2022-04-04 19:59:01.637",
    "SourceId": 2
  },
  {
    "AgentDateTime": "2022-04-04 11:20:00.000",
    "Id": 190,
    "VaribleId": 163,
    "Value": "{\"Name\":\"ПД0601М 178/2 от 27.03.2022\",\"Barcode\":\"2000000061627\"}",
    "IsCondition": 1,
    "InsertDateTime": "2022-04-04 19:48:40.650",
    "SourceId": 2
  },
  {
    "AgentDateTime": "2022-04-03 15:00:00.000",
    "Id": 189,
    "VaribleId": 163,
    "Value": "{\"Name\":\"ПД0601М 178/3 от 27.03.2022\",\"Barcode\":\"2000000061764\"}",
    "IsCondition": 1,
    "InsertDateTime": "2022-04-03 21:15:28.283",
    "SourceId": 2
  },
  {
    "AgentDateTime": "2022-04-03 12:00:00.000",
    "Id": 188,
    "VaribleId": 163,
    "Value": "{\"Name\":\"ПД0601М 178/4 от 27.03.2022\",\"Barcode\":\"2000000061665\"}",
    "IsCondition": 1,
    "InsertDateTime": "2022-04-03 20:42:11.780",
    "SourceId": 2
  },
  {
    "AgentDateTime": "2022-04-02 09:20:00.000",
    "Id": 186,
    "VaribleId": 163,
    "Value": "{\"Name\":\"ПД0601М 177/3 от 27.03.2022\",\"Barcode\":\"2000000061719\"}",
    "IsCondition": 1,
    "InsertDateTime": "2022-04-03 10:16:31.137",
    "SourceId": 2
  },
  {
    "AgentDateTime": "2022-04-01 15:20:00.000",
    "Id": 187,
    "VaribleId": 163,
    "Value": "{\"Name\":\"ПД0601М 177/2 от 27.03.2022\",\"Barcode\":\"2000000061573\"}",
    "IsCondition": 1,
    "InsertDateTime": "2022-04-03 10:19:46.570",
    "SourceId": 2
  },
  {
    "AgentDateTime": "2022-03-30 12:02:40.980",
    "Id": 185,
    "VaribleId": 163,
    "Value": "{\"Name\":\"ПД0601М 169/3 от 24.03.2022\",\"Barcode\":\"2000000061429\"}",
    "IsCondition": 1,
    "InsertDateTime": "2022-03-30 12:04:32.163",
    "SourceId": 2
  },
  {
    "AgentDateTime": "2022-03-25 17:32:18.777",
    "Id": 184,
    "VaribleId": 163,
    "Value": "{\"Name\":\"ПД0601М 165/2 от 23.03.2022\",\"Barcode\":\"2000000061306\"}",
    "IsCondition": 1,
    "InsertDateTime": "2022-03-25 17:33:01.420",
    "SourceId": 2
  },
  {
    "AgentDateTime": "2022-03-25 12:55:27.040",
    "Id": 183,
    "VaribleId": 163,
    "Value": "{\"Name\":\"ПД0601М 162/3 от 21.03.2022\",\"Barcode\":\"2000000061115\"}",
    "IsCondition": 1,
    "InsertDateTime": "2022-03-25 12:55:41.767",
    "SourceId": 2
  },
  {
    "AgentDateTime": "2022-03-25 10:20:19.090",
    "Id": 182,
    "VaribleId": 163,
    "Value": "{\"Name\":\"ПД0601М 162/4 от 21.03.2022\",\"Barcode\":\"2000000061085\"}",
    "IsCondition": 1,
    "InsertDateTime": "2022-03-25 10:20:33.960",
    "SourceId": 2
  },
  {
    "AgentDateTime": "2022-03-24 17:46:29.997",
    "Id": 181,
    "VaribleId": 164,
    "Value": "{\"Name\":\"0427/2 14,03,2022\",\"Barcode\":null}",
    "IsCondition": 1,
    "InsertDateTime": "2022-03-24 17:46:43.630",
    "SourceId": 2
  },
  {
    "AgentDateTime": "2022-03-24 17:45:32.917",
    "Id": 180,
    "VaribleId": 166,
    "Value": "{\"Name\":\"0425/1 04,03,2022\",\"Barcode\":null}",
    "IsCondition": 1,
    "InsertDateTime": "2022-03-24 17:45:48.277",
    "SourceId": 2
  },
  {
    "AgentDateTime": "2022-03-24 17:40:28.490",
    "Id": 179,
    "VaribleId": 165,
    "Value": "{\"Name\":\"0431/7 18,03,2022\",\"Barcode\":null}",
    "IsCondition": 1,
    "InsertDateTime": "2022-03-24 17:40:49.610",
    "SourceId": 2
  },
  {
    "AgentDateTime": "2022-03-24 17:38:57.833",
    "Id": 178,
    "VaribleId": 163,
    "Value": "{\"Name\":\"ПД0601М 161/3 от 21.03.2022\",\"Barcode\":\"2000000061078\"}",
    "IsCondition": 1,
    "InsertDateTime": "2022-03-24 17:39:10.830",
    "SourceId": 2
  },
  {
    "AgentDateTime": "2022-03-23 20:33:33.857",
    "Id": 177,
    "VaribleId": 163,
    "Value": "{\"Name\":\"ПД0601М 158/1 от 20.03.2022\",\"Barcode\":\"2000000060927\"}",
    "IsCondition": 1,
    "InsertDateTime": "2022-03-23 20:33:47.320",
    "SourceId": 2
  },
  {
    "AgentDateTime": "2022-03-23 17:54:48.140",
    "Id": 176,
    "VaribleId": 163,
    "Value": "{\"Name\":\"ПД0601М 158/1 от 20.03.2022\",\"Barcode\":\"2000000060927\"}",
    "IsCondition": 1,
    "InsertDateTime": "2022-03-23 17:55:12.233",
    "SourceId": 2
  },
  {
    "AgentDateTime": "2022-03-23 17:54:22.363",
    "Id": 175,
    "VaribleId": 166,
    "Value": "{\"Name\":\"0425/1 04.03.2022\",\"Barcode\":null}",
    "IsCondition": 1,
    "InsertDateTime": "2022-03-23 17:54:39.583",
    "SourceId": 2
  },
  {
    "AgentDateTime": "2022-03-23 16:01:01.197",
    "Id": 174,
    "VaribleId": 163,
    "Value": "{\"Name\":\"ПД0601М 158/3 от 20.03.2022\",\"Barcode\":\"2000000060859\"}",
    "IsCondition": 1,
    "InsertDateTime": "2022-03-23 16:01:14.740",
    "SourceId": 2
  },
  {
    "AgentDateTime": "2022-03-23 10:14:35.460",
    "Id": 173,
    "VaribleId": 163,
    "Value": "{\"Name\":\"ПД0601М 158/2 от 20.03.2022\",\"Barcode\":\"2000000060842\"}",
    "IsCondition": 1,
    "InsertDateTime": "2022-03-23 10:14:56.370",
    "SourceId": 2
  },
  {
    "AgentDateTime": "2022-03-23 10:09:51.303",
    "Id": 172,
    "VaribleId": 163,
    "Value": "{\"Name\":\"FP1 431/1 21.08.2021\",\"Barcode\":null}",
    "IsCondition": 1,
    "InsertDateTime": "2022-03-23 10:11:20.333",
    "SourceId": 2
  },
  {
    "AgentDateTime": "2022-03-22 14:54:10.147",
    "Id": 171,
    "VaribleId": 163,
    "Value": "{\"Name\":\"ПД0601М 158/4 от 20.03.2022\",\"Barcode\":\"2000000060873\"}",
    "IsCondition": 1,
    "InsertDateTime": "2022-03-22 14:54:23.503",
    "SourceId": 2
  },
  {
    "AgentDateTime": "2022-03-21 20:23:35.070",
    "Id": 170,
    "VaribleId": 166,
    "Value": "{\"Name\":\"0425/5\",\"Barcode\":null}",
    "IsCondition": 1,
    "InsertDateTime": "2022-03-21 20:23:47.877",
    "SourceId": 2
  },
  {
    "AgentDateTime": "2022-03-21 20:23:22.253",
    "Id": 169,
    "VaribleId": 165,
    "Value": "{\"Name\":\"0416/7\",\"Barcode\":null}",
    "IsCondition": 1,
    "InsertDateTime": "2022-03-21 20:23:32.283",
    "SourceId": 2
  },
  {
    "AgentDateTime": "2022-03-21 20:17:35.800",
    "Id": 168,
    "VaribleId": 163,
    "Value": "{\"Name\":\"ПД0601М 151/4 от 18.03.2022\",\"Barcode\":\"2000000060644\"}",
    "IsCondition": 1,
    "InsertDateTime": "2022-03-21 20:17:52.007",
    "SourceId": 2
  },
  {
    "AgentDateTime": "2022-03-21 14:16:45.503",
    "Id": 166,
    "VaribleId": 163,
    "Value": "{\"Name\":\"ПД0601М 148/4 от 17.03.2022\",\"Barcode\":\"2000000060514\"}",
    "IsCondition": 1,
    "InsertDateTime": "2022-03-21 14:17:16.987",
    "SourceId": 2
  },
  {
    "AgentDateTime": "2022-03-21 14:11:12.017",
    "Id": 165,
    "VaribleId": 163,
    "Value": "{\"Name\":\"ПД0601М 145/4 от 16.03.2022\",\"Barcode\":\"2000000060460\"}",
    "IsCondition": 1,
    "InsertDateTime": "2022-03-21 14:11:30.407",
    "SourceId": 2
  },
  {
    "AgentDateTime": "2022-03-21 08:39:03.110",
    "Id": 164,
    "VaribleId": 163,
    "Value": "{\"Name\":\"ПД0601М 145/3 от 16.03.2022\",\"Barcode\":\"2000000060507\"}",
    "IsCondition": 1,
    "InsertDateTime": "2022-03-21 08:39:14.187",
    "SourceId": 2
  },
  {
    "AgentDateTime": "2022-03-20 12:55:00.000",
    "Id": 167,
    "VaribleId": 164,
    "Value": "{\"Name\":\"0427/2\",\"Barcode\":null}",
    "IsCondition": 1,
    "InsertDateTime": "2022-03-21 14:34:34.737",
    "SourceId": 2
  },
  {
    "AgentDateTime": "2022-03-19 14:43:37.193",
    "Id": 163,
    "VaribleId": 163,
    "Value": "{\"Name\":\"ПД0601М 145/3 от 16.03.2022\",\"Barcode\":\"2000000060507\"}",
    "IsCondition": 1,
    "InsertDateTime": "2022-03-19 14:43:41.650",
    "SourceId": 2
  },
  {
    "AgentDateTime": "2022-03-19 14:39:35.427",
    "Id": 162,
    "VaribleId": 163,
    "Value": "{\"Name\":\"ПД0601М 145/1 от 16.03.2022\",\"Barcode\":\"2000000060491\"}",
    "IsCondition": 1,
    "InsertDateTime": "2022-03-19 14:39:53.923",
    "SourceId": 2
  },
  {
    "AgentDateTime": "2022-03-19 09:41:15.250",
    "Id": 160,
    "VaribleId": 163,
    "Value": "{\"Name\":\"ПД0601EV 131/1 от 10.03.2022\",\"Barcode\":\"2000000059891\"}",
    "IsCondition": 1,
    "InsertDateTime": "2022-03-19 09:41:30.380",
    "SourceId": 2
  },
  {
    "AgentDateTime": "2022-03-18 10:29:00.000",
    "Id": 161,
    "VaribleId": 163,
    "Value": "{\"Name\":\"ПД0601EV 141/3 от 14.03.2022\",\"Barcode\":\"2000000060316\"}",
    "IsCondition": 1,
    "InsertDateTime": "2022-03-19 10:30:29.247",
    "SourceId": 2
  },
  {
    "AgentDateTime": "2022-03-18 08:18:36.223",
    "Id": 159,
    "VaribleId": 163,
    "Value": "{\"Name\":\"ПД0601EV 141/2 от 14.03.2022\",\"Barcode\":\"2000000060279\"}",
    "IsCondition": 1,
    "InsertDateTime": "2022-03-18 08:18:44.447",
    "SourceId": 2
  },
  {
    "AgentDateTime": "2022-03-18 08:16:10.523",
    "Id": 158,
    "VaribleId": 163,
    "Value": "{\"Name\":\"ПД0601EV 141/1 от 14.03.2022\",\"Barcode\":\"2000000060286\"}",
    "IsCondition": 1,
    "InsertDateTime": "2022-03-18 08:16:24.273",
    "SourceId": 2
  },
  {
    "AgentDateTime": "2022-03-17 10:50:52.610",
    "Id": 157,
    "VaribleId": 163,
    "Value": "{\"Name\":\"ПД0601EV 131/4 от 10.03.2022\",\"Barcode\":\"2000000059907\"}",
    "IsCondition": 1,
    "InsertDateTime": "2022-03-17 10:51:11.567",
    "SourceId": 2
  },
  {
    "AgentDateTime": "2022-03-16 17:53:19.907",
    "Id": 156,
    "VaribleId": 163,
    "Value": "{\"Name\":\"ПД0601EV 120/2 от 04.03.2022\",\"Barcode\":\"2000000059396\"}",
    "IsCondition": 1,
    "InsertDateTime": "2022-03-16 17:53:47.103",
    "SourceId": 2
  },
  {
    "AgentDateTime": "2022-03-16 08:48:59.580",
    "Id": 155,
    "VaribleId": 163,
    "Value": "{\"Name\":\"ПД0601EV 117/2 от 03.03.2022\",\"Barcode\":\"2000000059266\"}",
    "IsCondition": 1,
    "InsertDateTime": "2022-03-16 08:49:30.420",
    "SourceId": 2
  },
  {
    "AgentDateTime": "2022-03-15 08:00:00.000",
    "Id": 154,
    "VaribleId": 163,
    "Value": "{\"Name\":\"ПД0601EV 117/3 от 03.03.2022\",\"Barcode\":\"2000000059327\"}",
    "IsCondition": 1,
    "InsertDateTime": "2022-03-15 16:18:09.030",
    "SourceId": 2
  },
  {
    "AgentDateTime": "2022-03-14 13:25:00.000",
    "Id": 152,
    "VaribleId": 163,
    "Value": "{\"Name\":\"ПД0601EV 119/2 от 04.03.2022\",\"Barcode\":\"2000000059358\"}",
    "IsCondition": 1,
    "InsertDateTime": "2022-03-14 15:03:27.390",
    "SourceId": 2
  },
  {
    "AgentDateTime": "2022-03-14 11:30:00.000",
    "Id": 150,
    "VaribleId": 163,
    "Value": "{\"Name\":\"ПД0601EV 119/2 от 04.03.2022\",\"Barcode\":\"2000000059358\"}",
    "IsCondition": 1,
    "InsertDateTime": "2022-03-14 12:00:52.717",
    "SourceId": 2
  },
  {
    "AgentDateTime": "2022-03-14 11:00:00.000",
    "Id": 151,
    "VaribleId": 163,
    "Value": "{\"Name\":\"ПД0601EV 119/2 от 04.03.2022\",\"Barcode\":\"2000000059358\"}",
    "IsCondition": 1,
    "InsertDateTime": "2022-03-14 14:37:39.423",
    "SourceId": 2
  },
  {
    "AgentDateTime": "2022-03-14 08:00:00.000",
    "Id": 149,
    "VaribleId": 163,
    "Value": "{\"Name\":\"ПД0601EV 119/3 от 04.03.2022\",\"Barcode\":\"2000000059389\"}",
    "IsCondition": 1,
    "InsertDateTime": "2022-03-14 11:53:33.630",
    "SourceId": 2
  },
  {
    "AgentDateTime": "2022-03-13 08:00:00.000",
    "Id": 148,
    "VaribleId": 163,
    "Value": "{\"Name\":\"ПД0601М 87/1 от 16.02.2022\",\"Barcode\":\"2000000058153\"}",
    "IsCondition": 1,
    "InsertDateTime": "2022-03-14 11:46:12.343",
    "SourceId": 2
  },
  {
    "AgentDateTime": "2022-03-13 08:00:00.000",
    "Id": 147,
    "VaribleId": 163,
    "Value": "{\"Name\":\"ПД0601М 87/1 от 16.02.2022\",\"Barcode\":\"2000000058153\"}",
    "IsCondition": 1,
    "InsertDateTime": "2022-03-14 11:12:38.590",
    "SourceId": 2
  },
  {
    "AgentDateTime": "2022-03-10 09:40:00.000",
    "Id": 145,
    "VaribleId": 163,
    "Value": "{\"Name\":\"ПД0601EV 115/2 от 02.03.2022\",\"Barcode\":\"2000000059181\"}",
    "IsCondition": 1,
    "InsertDateTime": "2022-03-10 15:35:30.080",
    "SourceId": 2
  },
  {
    "AgentDateTime": "2022-03-09 16:30:00.000",
    "Id": 146,
    "VaribleId": 163,
    "Value": "{\"Name\":\"ПД0601EV 120/4 от 04.03.2022\",\"Barcode\":\"2000000059426\"}",
    "IsCondition": 1,
    "InsertDateTime": "2022-03-11 09:11:36.100",
    "SourceId": 2
  },
  {
    "AgentDateTime": "2022-03-05 09:10:00.000",
    "Id": 144,
    "VaribleId": 163,
    "Value": "{\"Name\":\"ПД0601EV 115/3 от 02.03.2022\",\"Barcode\":\"2000000059242\"}",
    "IsCondition": 1,
    "InsertDateTime": "2022-03-05 15:52:55.043",
    "SourceId": 2
  },
  {
    "AgentDateTime": "2022-03-04 19:50:00.000",
    "Id": 143,
    "VaribleId": 163,
    "Value": "{\"Name\":\"ПД0601EV 104/4 от 24.02.2022\",\"Barcode\":\"2000000058801\"}",
    "IsCondition": 1,
    "InsertDateTime": "2022-03-05 13:13:36.713",
    "SourceId": 2
  },
  {
    "AgentDateTime": "2022-03-04 12:30:00.000",
    "Id": 142,
    "VaribleId": 163,
    "Value": "{\"Name\":\"ПД0601EV 115/4 от 02.03.2022\",\"Barcode\":\"2000000059204\"}",
    "IsCondition": 1,
    "InsertDateTime": "2022-03-04 17:36:53.117",
    "SourceId": 2
  },
  {
    "AgentDateTime": "2022-03-04 08:00:00.000",
    "Id": 141,
    "VaribleId": 163,
    "Value": "{\"Name\":\"ПД0601EV 105/4 от 25.02.2022\",\"Barcode\":\"2000000058849\"}",
    "IsCondition": 1,
    "InsertDateTime": "2022-03-04 17:15:04.160",
    "SourceId": 2
  },
  {
    "AgentDateTime": "2022-03-03 10:50:00.000",
    "Id": 140,
    "VaribleId": 163,
    "Value": "{\"Name\":\"ПД0601EV 104/2 от 24.02.2022\",\"Barcode\":\"2000000058757\"}",
    "IsCondition": 1,
    "InsertDateTime": "2022-03-03 18:52:02.523",
    "SourceId": 2
  },
  {
    "AgentDateTime": "2022-03-02 08:00:00.000",
    "Id": 139,
    "VaribleId": 163,
    "Value": "{\"Name\":\"ПД0601М 83/2 от 14.02.2022\",\"Barcode\":\"2000000057897\"}",
    "IsCondition": 1,
    "InsertDateTime": "2022-03-02 19:49:25.413",
    "SourceId": 2
  },
  {
    "AgentDateTime": "2022-03-01 08:00:00.000",
    "Id": 138,
    "VaribleId": 164,
    "Value": "{\"Name\":\"0415/2\",\"Barcode\":null}",
    "IsCondition": 1,
    "InsertDateTime": "2022-03-02 08:03:23.130",
    "SourceId": 2
  },
  {
    "AgentDateTime": "2022-02-25 19:21:37.590",
    "Id": 137,
    "VaribleId": 163,
    "Value": "{\"Name\":\"ПД0601М 91/2 от 18.02.2022\",\"Barcode\":\"2000000058276\"}",
    "IsCondition": 1,
    "InsertDateTime": "2022-02-25 19:22:02.690",
    "SourceId": 2
  },
  {
    "AgentDateTime": "2022-02-25 12:12:39.197",
    "Id": 136,
    "VaribleId": 163,
    "Value": "{\"Name\":\"ПД0601М 87/4 от 16.02.2022\",\"Barcode\":\"2000000058177\"}",
    "IsCondition": 1,
    "InsertDateTime": "2022-02-25 12:13:07.780",
    "SourceId": 2
  },
  {
    "AgentDateTime": "2022-02-24 20:17:03.243",
    "Id": 135,
    "VaribleId": 163,
    "Value": "{\"Name\":\"ПД0601М 87/4 от 16.02.2022\",\"Barcode\":\"2000000058177\"}",
    "IsCondition": 1,
    "InsertDateTime": "2022-02-24 20:17:18.160",
    "SourceId": 2
  },
  {
    "AgentDateTime": "2022-02-24 20:15:42.937",
    "Id": 134,
    "VaribleId": 163,
    "Value": "{\"Name\":\"ПД0601М 87/2 от 16.02.2022\",\"Barcode\":\"2000000058108\"}",
    "IsCondition": 1,
    "InsertDateTime": "2022-02-24 20:16:03.150",
    "SourceId": 2
  },
  {
    "AgentDateTime": "2022-02-24 20:14:53.887",
    "Id": 133,
    "VaribleId": 163,
    "Value": "{\"Name\":\"ПД0601М 87/4 от 16.02.2022\",\"Barcode\":\"2000000058177\"}",
    "IsCondition": 1,
    "InsertDateTime": "2022-02-24 20:15:16.973",
    "SourceId": 2
  },
  {
    "AgentDateTime": "2022-02-24 13:01:22.957",
    "Id": 132,
    "VaribleId": 163,
    "Value": "{\"Name\":\"ПД0601М 87/2 от 16.02.2022\",\"Barcode\":\"2000000058108\"}",
    "IsCondition": 1,
    "InsertDateTime": "2022-02-24 13:01:47.910",
    "SourceId": 2
  },
  {
    "AgentDateTime": "2022-02-24 08:25:01.740",
    "Id": 131,
    "VaribleId": 166,
    "Value": "{\"Name\":\"0405/2\",\"Barcode\":null}",
    "IsCondition": 1,
    "InsertDateTime": "2022-02-24 08:25:09.990",
    "SourceId": 2
  },
  {
    "AgentDateTime": "2022-02-24 08:19:55.093",
    "Id": 130,
    "VaribleId": 164,
    "Value": "{\"Name\":\"0415/2\",\"Barcode\":null}",
    "IsCondition": 1,
    "InsertDateTime": "2022-02-24 08:20:05.760",
    "SourceId": 2
  },
  {
    "AgentDateTime": "2022-02-22 17:37:40.610",
    "Id": 129,
    "VaribleId": 163,
    "Value": "{\"Name\":\"ПД0601М 86/2 от 16.02.2022\",\"Barcode\":\"2000000058085\"}",
    "IsCondition": 1,
    "InsertDateTime": "2022-02-22 17:37:59.240",
    "SourceId": 2
  },
  {
    "AgentDateTime": "2022-02-22 17:35:16.463",
    "Id": 128,
    "VaribleId": 163,
    "Value": "{\"Name\":\"ПД0601М 86/3 от 16.02.2022\",\"Barcode\":\"2000000058078\"}",
    "IsCondition": 1,
    "InsertDateTime": "2022-02-22 17:35:38.160",
    "SourceId": 2
  },
  {
    "AgentDateTime": "2022-02-22 17:29:54.333",
    "Id": 127,
    "VaribleId": 163,
    "Value": "{\"Name\":\"ПД0601М 86/4 от 16.02.2022\",\"Barcode\":\"2000000058139\"}",
    "IsCondition": 1,
    "InsertDateTime": "2022-02-22 17:31:10.940",
    "SourceId": 2
  },
  {
    "AgentDateTime": "2022-02-18 08:36:51.867",
    "Id": 126,
    "VaribleId": 163,
    "Value": "{\"Name\":\"ПД0601М 72/3 от 10.02.2022\",\"Barcode\":\"2000000057507\"}",
    "IsCondition": 1,
    "InsertDateTime": "2022-02-18 08:37:22.020",
    "SourceId": 2
  },
  {
    "AgentDateTime": "2022-02-17 08:22:00.017",
    "Id": 125,
    "VaribleId": 163,
    "Value": "{\"Name\":\"ПД0601М 79/2 от 13.02.2022\",\"Barcode\":\"2000000057804\"}",
    "IsCondition": 1,
    "InsertDateTime": "2022-02-17 08:22:15.710",
    "SourceId": 2
  },
  {
    "AgentDateTime": "2022-02-16 07:54:20.953",
    "Id": 124,
    "VaribleId": 166,
    "Value": "{\"Name\":\"0405/2\",\"Barcode\":null}",
    "IsCondition": 1,
    "InsertDateTime": "2022-02-16 07:54:27.347",
    "SourceId": 2
  },
  {
    "AgentDateTime": "2022-02-16 07:54:09.120",
    "Id": 123,
    "VaribleId": 165,
    "Value": "{\"Name\":\"0393/7\",\"Barcode\":null}",
    "IsCondition": 1,
    "InsertDateTime": "2022-02-16 07:54:17.593",
    "SourceId": 2
  },
  {
    "AgentDateTime": "2022-02-16 07:53:13.887",
    "Id": 122,
    "VaribleId": 164,
    "Value": "{\"Name\":\"0411/2\",\"Barcode\":null}",
    "IsCondition": 1,
    "InsertDateTime": "2022-02-16 07:54:04.710",
    "SourceId": 2
  },
  {
    "AgentDateTime": "2022-02-16 07:52:19.017",
    "Id": 121,
    "VaribleId": 163,
    "Value": "{\"Name\":\"ПД0601М 36/3 от 24.01.2022\",\"Barcode\":\"2000000056050\"}",
    "IsCondition": 1,
    "InsertDateTime": "2022-02-16 07:53:10.393",
    "SourceId": 2
  },
  {
    "AgentDateTime": "2022-02-13 17:00:00.000",
    "Id": 120,
    "VaribleId": 163,
    "Value": "{\"Name\":\"ПД0601М 73/1 от 10.02.2022\",\"Barcode\":\"2000000057514\"}",
    "IsCondition": 1,
    "InsertDateTime": "2022-02-14 06:56:00.640",
    "SourceId": 2
  },
  {
    "AgentDateTime": "2022-02-12 13:20:00.000",
    "Id": 119,
    "VaribleId": 163,
    "Value": "{\"Name\":\"ПД0601М 60/4 от 04.02.2022\",\"Barcode\":\"2000000057002\"}",
    "IsCondition": 1,
    "InsertDateTime": "2022-02-12 20:24:16.573",
    "SourceId": 2
  },
  {
    "AgentDateTime": "2022-02-12 10:00:00.000",
    "Id": 117,
    "VaribleId": 164,
    "Value": "{\"Name\":\"0411/2  13/01/22\",\"Barcode\":null}",
    "IsCondition": 1,
    "InsertDateTime": "2022-02-12 17:39:18.193",
    "SourceId": 2
  },
  {
    "AgentDateTime": "2022-02-12 08:00:00.000",
    "Id": 118,
    "VaribleId": 163,
    "Value": "{\"Name\":\"ПД0601М 64/3 от 06.02.2022\",\"Barcode\":\"2000000057125\"}",
    "IsCondition": 1,
    "InsertDateTime": "2022-02-12 20:20:36.737",
    "SourceId": 2
  },
  {
    "AgentDateTime": "2022-02-11 13:16:00.000",
    "Id": 116,
    "VaribleId": 163,
    "Value": "{\"Name\":\"ПД0601М 64/3 от 06.02.2022\",\"Barcode\":\"2000000057125\"}",
    "IsCondition": 1,
    "InsertDateTime": "2022-02-11 17:38:45.237",
    "SourceId": 2
  },
  {
    "AgentDateTime": "2022-02-11 11:32:18.443",
    "Id": 109,
    "VaribleId": 162,
    "Value": "{\"Name\":\"М 600\",\"Barcode\":null}",
    "IsCondition": 1,
    "InsertDateTime": "2022-02-11 11:32:42.880",
    "SourceId": 2
  },
  {
    "AgentDateTime": "2022-02-11 09:32:00.000",
    "Id": 110,
    "VaribleId": 163,
    "Value": "{\"Name\":\"ПД0601М 62/2 от 05.02.2022\",\"Barcode\":\"2000000057200\"}",
    "IsCondition": 1,
    "InsertDateTime": "2022-02-11 11:33:37.977",
    "SourceId": 2
  },
  {
    "AgentDateTime": "2022-02-11 00:01:00.000",
    "Id": 114,
    "VaribleId": 165,
    "Value": "{\"Name\":\"0393/7\",\"Barcode\":null}",
    "IsCondition": 1,
    "InsertDateTime": "2022-02-11 17:37:43.187",
    "SourceId": 2
  },
  {
    "AgentDateTime": "2022-02-11 00:00:00.000",
    "Id": 115,
    "VaribleId": 162,
    "Value": "{\"Name\":\"м600\",\"Barcode\":null}",
    "IsCondition": 1,
    "InsertDateTime": "2022-02-11 17:38:07.013",
    "SourceId": 2
  },
  {
    "AgentDateTime": "2022-02-11 00:00:00.000",
    "Id": 113,
    "VaribleId": 166,
    "Value": "{\"Name\":\"0405/2\",\"Barcode\":null}",
    "IsCondition": 1,
    "InsertDateTime": "2022-02-11 17:37:08.240",
    "SourceId": 2
  },
  {
    "AgentDateTime": "2022-02-11 00:00:00.000",
    "Id": 112,
    "VaribleId": 165,
    "Value": "{\"Name\":\"0405/2\",\"Barcode\":null}",
    "IsCondition": 1,
    "InsertDateTime": "2022-02-11 17:36:18.030",
    "SourceId": 2
  },
  {
    "AgentDateTime": "2022-02-11 00:00:00.000",
    "Id": 111,
    "VaribleId": 164,
    "Value": "{\"Name\":\"0404/4\",\"Barcode\":null}",
    "IsCondition": 1,
    "InsertDateTime": "2022-02-11 17:36:00.513",
    "SourceId": 2
  },
  {
    "AgentDateTime": "2022-02-09 15:55:00.000",
    "Id": 108,
    "VaribleId": 166,
    "Value": "{\"Name\":\"0405/2\",\"Barcode\":null}",
    "IsCondition": 1,
    "InsertDateTime": "2022-02-09 17:03:33.203",
    "SourceId": 2
  },
  {
    "AgentDateTime": "2022-02-09 13:15:00.000",
    "Id": 107,
    "VaribleId": 163,
    "Value": "{\"Name\":\"ПД0601М 59/3 от 04.02.2022\",\"Barcode\":\"2000000057118\"}",
    "IsCondition": 1,
    "InsertDateTime": "2022-02-09 16:59:09.507",
    "SourceId": 2
  },
  {
    "AgentDateTime": "2022-02-09 08:00:00.000",
    "Id": 106,
    "VaribleId": 163,
    "Value": "{\"Name\":\"ПД0601М 60/2 от 04.02.2022\",\"Barcode\":\"2000000057033\"}",
    "IsCondition": 1,
    "InsertDateTime": "2022-02-09 16:56:30.443",
    "SourceId": 2
  },
  {
    "AgentDateTime": "2022-02-08 14:45:00.000",
    "Id": 105,
    "VaribleId": 163,
    "Value": "{\"Name\":\"ПД0601М 60/1 от 04.02.2022\",\"Barcode\":\"2000000057170\"}",
    "IsCondition": 1,
    "InsertDateTime": "2022-02-08 20:08:13.880",
    "SourceId": 2
  },
  {
    "AgentDateTime": "2022-02-07 13:21:15.990",
    "Id": 97,
    "VaribleId": 163,
    "Value": "{\"Name\":\"ПД0601М 58/4 от 03.02.2022\",\"Barcode\":\"2000000056951\"}",
    "IsCondition": 1,
    "InsertDateTime": "2022-02-07 13:22:49.933",
    "SourceId": 2
  },
  {
    "AgentDateTime": "2022-02-07 13:16:38.680",
    "Id": 96,
    "VaribleId": 163,
    "Value": "{\"Name\":\"ПД0601М 59/2 от 04.02.2022\",\"Barcode\":\"2000000057149\"}",
    "IsCondition": 1,
    "InsertDateTime": "2022-02-07 13:17:08.767",
    "SourceId": 2
  },
  {
    "AgentDateTime": "2022-02-07 08:00:00.000",
    "Id": 101,
    "VaribleId": 163,
    "Value": "{\"Name\":\"ПД0601М 58/4 от 03.02.2022\",\"Barcode\":\"2000000056951\"}",
    "IsCondition": 1,
    "InsertDateTime": "2022-02-07 13:39:43.507",
    "SourceId": 2
  },
  {
    "AgentDateTime": "2022-02-07 07:50:00.000",
    "Id": 103,
    "VaribleId": 163,
    "Value": "{\"Name\":\"ПД0601М 58/3 от 03.02.2022\",\"Barcode\":\"2000000056968\"}",
    "IsCondition": 1,
    "InsertDateTime": "2022-02-07 13:51:08.557",
    "SourceId": 2
  },
  {
    "AgentDateTime": "2022-02-07 07:50:00.000",
    "Id": 102,
    "VaribleId": 163,
    "Value": "{\"Name\":\"ПД0601М 58/3 от 03.02.2022\",\"Barcode\":\"2000000056968\"}",
    "IsCondition": 1,
    "InsertDateTime": "2022-02-07 13:46:27.990",
    "SourceId": 2
  },
  {
    "AgentDateTime": "2022-02-06 16:50:00.000",
    "Id": 100,
    "VaribleId": 163,
    "Value": "{\"Name\":\"ПД0601М 59/4 от 04.02.2022\",\"Barcode\":\"2000000057101\"}",
    "IsCondition": 1,
    "InsertDateTime": "2022-02-07 13:34:25.683",
    "SourceId": 2
  },
  {
    "AgentDateTime": "2022-02-06 16:50:00.000",
    "Id": 99,
    "VaribleId": 163,
    "Value": "{\"Name\":\"ПД0601М 59/4 от 04.02.2022\",\"Barcode\":\"2000000057101\"}",
    "IsCondition": 1,
    "InsertDateTime": "2022-02-07 13:31:02.183",
    "SourceId": 2
  },
  {
    "AgentDateTime": "2022-02-05 13:45:00.000",
    "Id": 104,
    "VaribleId": 163,
    "Value": "{\"Name\":\"ПД0601М 59/2 от 04.02.2022\",\"Barcode\":\"2000000057149\"}",
    "IsCondition": 1,
    "InsertDateTime": "2022-02-07 13:55:28.250",
    "SourceId": 2
  },
  {
    "AgentDateTime": "2022-02-05 13:25:00.000",
    "Id": 98,
    "VaribleId": 163,
    "Value": "{\"Name\":\"ПД0601М 58/4 от 03.02.2022\",\"Barcode\":\"2000000056951\"}",
    "IsCondition": 1,
    "InsertDateTime": "2022-02-07 13:26:50.320",
    "SourceId": 2
  },
  {
    "AgentDateTime": "2022-02-04 18:00:00.000",
    "Id": 95,
    "VaribleId": 163,
    "Value": "{\"Name\":\"ПД0601М 28/1 от 20.01.2022\",\"Barcode\":\"2000000055725\"}",
    "IsCondition": 1,
    "InsertDateTime": "2022-02-05 10:41:15.500",
    "SourceId": 2
  },
  {
    "AgentDateTime": "2022-02-03 11:05:00.000",
    "Id": 94,
    "VaribleId": 163,
    "Value": "{\"Name\":\"ПД0601М 28/4 от 20.01.2022\",\"Barcode\":\"2000000055732\"}",
    "IsCondition": 1,
    "InsertDateTime": "2022-02-03 21:14:54.360",
    "SourceId": 2
  },
  {
    "AgentDateTime": "2022-02-02 19:30:00.000",
    "Id": 93,
    "VaribleId": 163,
    "Value": "{\"Name\":\"ПД0601М 27/2 от 20.01.2022\",\"Barcode\":\"2000000055657\"}",
    "IsCondition": 1,
    "InsertDateTime": "2022-02-03 08:59:14.360",
    "SourceId": 2
  },
  {
    "AgentDateTime": "2022-01-23 16:46:19.250",
    "Id": 92,
    "VaribleId": 163,
    "Value": "{\"Name\":\"ПД0601М 27/4 от 20.01.2022\",\"Barcode\":\"2000000055664\"}",
    "IsCondition": 1,
    "InsertDateTime": "2022-01-23 16:46:30.100",
    "SourceId": 2
  },
  {
    "AgentDateTime": "2022-01-22 16:40:00.000",
    "Id": 91,
    "VaribleId": 163,
    "Value": "{\"Name\":\"ПД0601М 19/2 от 17.01.2022\",\"Barcode\":\"2000000055411\"}",
    "IsCondition": 1,
    "InsertDateTime": "2022-01-22 21:14:20.250",
    "SourceId": 2
  },
  {
    "AgentDateTime": "2022-01-22 15:41:49.473",
    "Id": 90,
    "VaribleId": 163,
    "Value": "{\"Name\":\"ПД0601М 7/3 от 13.01.2022\",\"Barcode\":\"2000000054957\"}",
    "IsCondition": 1,
    "InsertDateTime": "2022-01-22 15:42:12.533",
    "SourceId": 2
  },
  {
    "AgentDateTime": "2022-01-22 08:16:30.907",
    "Id": 89,
    "VaribleId": 163,
    "Value": "{\"Name\":\"ПД0601М 7/3 от 13.01.2022\",\"Barcode\":\"2000000054957\"}",
    "IsCondition": 1,
    "InsertDateTime": "2022-01-22 08:16:55.033",
    "SourceId": 2
  },
  {
    "AgentDateTime": "2022-01-18 15:45:00.000",
    "Id": 88,
    "VaribleId": 163,
    "Value": "{\"Name\":\"ПД0601М 3/1 от 12.01.2022\",\"Barcode\":\"2000000054629\"}",
    "IsCondition": 1,
    "InsertDateTime": "2022-01-19 07:58:58.630",
    "SourceId": 2
  },
  {
    "AgentDateTime": "2022-01-18 15:35:00.000",
    "Id": 87,
    "VaribleId": 163,
    "Value": "{\"Name\":\"ПД0601М 3/1 от 12.01.2022\",\"Barcode\":\"2000000054629\"}",
    "IsCondition": 1,
    "InsertDateTime": "2022-01-18 19:01:17.627",
    "SourceId": 2
  },
  {
    "AgentDateTime": "2022-01-18 15:30:00.000",
    "Id": 86,
    "VaribleId": 163,
    "Value": "{\"Name\":\"ПД0601М 3/1 от 12.01.2022\",\"Barcode\":\"2000000054629\"}",
    "IsCondition": 1,
    "InsertDateTime": "2022-01-18 18:52:40.717",
    "SourceId": 2
  },
  {
    "AgentDateTime": "2022-01-18 15:30:00.000",
    "Id": 85,
    "VaribleId": 163,
    "Value": "{\"Name\":\"ПД0601М 3/1 от 12.01.2022\",\"Barcode\":\"2000000054629\"}",
    "IsCondition": 1,
    "InsertDateTime": "2022-01-18 18:49:23.510",
    "SourceId": 2
  },
  {
    "AgentDateTime": "2022-01-18 13:00:00.000",
    "Id": 81,
    "VaribleId": 163,
    "Value": "{\"Name\":\"ПД0601М 7/4 от 13.01.2022\",\"Barcode\":\"2000000054872\"}",
    "IsCondition": 1,
    "InsertDateTime": "2022-01-18 13:14:43.300",
    "SourceId": 2
  },
  {
    "AgentDateTime": "2022-01-18 11:00:00.000",
    "Id": 84,
    "VaribleId": 163,
    "Value": "{\"Name\":\"ПД0601М 7/4 от 13.01.2022\",\"Barcode\":\"2000000054872\"}",
    "IsCondition": 1,
    "InsertDateTime": "2022-01-18 18:44:19.410",
    "SourceId": 2
  },
  {
    "AgentDateTime": "2022-01-18 10:00:00.000",
    "Id": 83,
    "VaribleId": 163,
    "Value": "{\"Name\":\"ПД0601М 7/4 от 13.01.2022\",\"Barcode\":\"2000000054872\"}",
    "IsCondition": 1,
    "InsertDateTime": "2022-01-18 18:38:02.713",
    "SourceId": 2
  },
  {
    "AgentDateTime": "2022-01-18 10:00:00.000",
    "Id": 82,
    "VaribleId": 163,
    "Value": "{\"Name\":\"ПД0601М 7/4 от 13.01.2022\",\"Barcode\":\"2000000054872\"}",
    "IsCondition": 1,
    "InsertDateTime": "2022-01-18 13:26:12.337",
    "SourceId": 2
  },
  {
    "AgentDateTime": "2022-01-17 08:00:00.000",
    "Id": 80,
    "VaribleId": 163,
    "Value": "{\"Name\":\"ПД0601М 8/1 от 13.01.2022\",\"Barcode\":\"2000000054933\"}",
    "IsCondition": 1,
    "InsertDateTime": "2022-01-17 19:06:25.673",
    "SourceId": 2
  },
  {
    "AgentDateTime": "2022-01-17 08:00:00.000",
    "Id": 79,
    "VaribleId": 163,
    "Value": "{\"Name\":\"ПД0601М 8/1 от 13.01.2022\",\"Barcode\":\"2000000054933\"}",
    "IsCondition": 1,
    "InsertDateTime": "2022-01-17 19:04:20.027",
    "SourceId": 2
  },
  {
    "AgentDateTime": "2022-01-17 08:00:00.000",
    "Id": 78,
    "VaribleId": 163,
    "Value": "{\"Name\":\"ПД0601М 8/1 от 13.01.2022\",\"Barcode\":\"2000000054933\"}",
    "IsCondition": 1,
    "InsertDateTime": "2022-01-17 18:59:53.433",
    "SourceId": 2
  },
  {
    "AgentDateTime": "2022-01-17 08:00:00.000",
    "Id": 77,
    "VaribleId": 163,
    "Value": "{\"Name\":\"ПД0601М 8/1 от 13.01.2022\",\"Barcode\":\"2000000054933\"}",
    "IsCondition": 1,
    "InsertDateTime": "2022-01-17 18:57:14.053",
    "SourceId": 2
  },
  {
    "AgentDateTime": "2022-01-17 08:00:00.000",
    "Id": 76,
    "VaribleId": 163,
    "Value": "{\"Name\":\"ПД0601М 8/1 от 13.01.2022\",\"Barcode\":\"2000000054933\"}",
    "IsCondition": 1,
    "InsertDateTime": "2022-01-17 18:55:13.180",
    "SourceId": 2
  },
  {
    "AgentDateTime": "2022-01-17 08:00:00.000",
    "Id": 75,
    "VaribleId": 163,
    "Value": "{\"Name\":null,\"Barcode\":null}",
    "IsCondition": 1,
    "InsertDateTime": "2022-01-17 18:52:54.713",
    "SourceId": 2
  },
  {
    "AgentDateTime": "2022-01-16 10:40:00.000",
    "Id": 74,
    "VaribleId": 163,
    "Value": "{\"Name\":\"ПД0601М 3/4 от 12.01.2022\",\"Barcode\":\"2000000054674\"}",
    "IsCondition": 1,
    "InsertDateTime": "2022-01-17 08:19:58.037",
    "SourceId": 2
  },
  {
    "AgentDateTime": "2022-01-15 13:01:00.000",
    "Id": 73,
    "VaribleId": 163,
    "Value": "{\"Name\":\"ПД0601М 7/1 от 13.01.2022\",\"Barcode\":\"2000000054896\"}",
    "IsCondition": 1,
    "InsertDateTime": "2022-01-16 07:34:43.253",
    "SourceId": 2
  },
  {
    "AgentDateTime": "2022-01-15 08:45:00.000",
    "Id": 72,
    "VaribleId": 163,
    "Value": "{\"Name\":\"ПД0601М 722/3 от 27.12.2021\",\"Barcode\":\"2000000054292\"}",
    "IsCondition": 1,
    "InsertDateTime": "2022-01-15 07:04:32.717",
    "SourceId": 2
  },
  {
    "AgentDateTime": "2022-01-14 16:20:00.000",
    "Id": 153,
    "VaribleId": 163,
    "Value": "{\"Name\":\"ПД0601EV 119/2 от 04.03.2022\",\"Barcode\":\"2000000059358\"}",
    "IsCondition": 1,
    "InsertDateTime": "2022-03-15 09:38:46.170",
    "SourceId": 2
  },
  {
    "AgentDateTime": "2022-01-12 14:20:00.000",
    "Id": 71,
    "VaribleId": 163,
    "Value": "{\"Name\":\"ПД0601М 713/1 от 23.12.2021\",\"Barcode\":\"2000000053950\"}",
    "IsCondition": 1,
    "InsertDateTime": "2022-01-13 07:19:44.380",
    "SourceId": 2
  },
  {
    "AgentDateTime": "2022-01-12 10:40:00.000",
    "Id": 70,
    "VaribleId": 163,
    "Value": "{\"Name\":\"ПД0601М 723/2 от 28.12.2021\",\"Barcode\":\"2000000054384\"}",
    "IsCondition": 1,
    "InsertDateTime": "2022-01-12 14:55:05.300",
    "SourceId": 2
  },
  {
    "AgentDateTime": "2022-01-12 07:27:58.860",
    "Id": 69,
    "VaribleId": 163,
    "Value": "{\"Name\":\"ПД0601М 723/4 от 28.12.2021\",\"Barcode\":\"2000000054353\"}",
    "IsCondition": 1,
    "InsertDateTime": "2022-01-12 07:28:30.797",
    "SourceId": 2
  },
  {
    "AgentDateTime": "2022-01-10 13:00:01.693",
    "Id": 68,
    "VaribleId": 163,
    "Value": "{\"Name\":\"ПД0601М 703/2 от 18.12.2021\",\"Barcode\":\"2000000053509\"}",
    "IsCondition": 1,
    "InsertDateTime": "2022-01-10 13:00:17.990",
    "SourceId": 2
  },
  {
    "AgentDateTime": "2022-01-09 16:15:52.453",
    "Id": 67,
    "VaribleId": 163,
    "Value": "{\"Name\":\"ПД0601М 713/3 от 23.12.2021\",\"Barcode\":\"2000000053943\"}",
    "IsCondition": 1,
    "InsertDateTime": "2022-01-09 16:16:16.323",
    "SourceId": 2
  },
  {
    "AgentDateTime": "2022-01-09 07:23:36.307",
    "Id": 66,
    "VaribleId": 163,
    "Value": "{\"Name\":\"ПД0601М 722/2 от 27.12.2021\",\"Barcode\":\"2000000054322\"}",
    "IsCondition": 1,
    "InsertDateTime": "2022-01-09 07:23:46.777",
    "SourceId": 2
  },
  {
    "AgentDateTime": "2022-01-08 15:04:53.593",
    "Id": 65,
    "VaribleId": 163,
    "Value": "{\"Name\":\"ПД0601М 713/4 от 23.12.2021\",\"Barcode\":\"2000000053967\"}",
    "IsCondition": 1,
    "InsertDateTime": "2022-01-08 15:05:16.620",
    "SourceId": 2
  },
  {
    "AgentDateTime": "2021-12-26 20:06:55.953",
    "Id": 64,
    "VaribleId": 163,
    "Value": "{\"Name\":\"ПД0601М 712/2 от 23.12.2021\",\"Barcode\":\"2000000053875\"}",
    "IsCondition": 1,
    "InsertDateTime": "2021-12-26 20:07:30.220",
    "SourceId": 2
  },
  {
    "AgentDateTime": "2021-12-25 14:03:29.170",
    "Id": 63,
    "VaribleId": 163,
    "Value": "{\"Name\":\"ПД0601М 706/4 от 20.12.2021\",\"Barcode\":\"2000000053660\"}",
    "IsCondition": 1,
    "InsertDateTime": "2021-12-25 14:03:53.260",
    "SourceId": 2
  },
  {
    "AgentDateTime": "2021-12-24 16:32:23.840",
    "Id": 62,
    "VaribleId": 163,
    "Value": "{\"Name\":\"ПД0601М 705/3 от 20.12.2021\",\"Barcode\":\"2000000053622\"}",
    "IsCondition": 1,
    "InsertDateTime": "2021-12-24 16:32:32.323",
    "SourceId": 2
  },
  {
    "AgentDateTime": "2021-12-22 15:45:00.000",
    "Id": 61,
    "VaribleId": 163,
    "Value": "{\"Name\":\"ПД0601М 695/2 от 14.12.2021\",\"Barcode\":\"2000000053196\"}",
    "IsCondition": 1,
    "InsertDateTime": "2021-12-23 08:32:48.977",
    "SourceId": 2
  },
  {
    "AgentDateTime": "2021-12-22 08:00:00.000",
    "Id": 60,
    "VaribleId": 163,
    "Value": "{\"Name\":\"ПД0601М 695/3 от 14.12.2021\",\"Barcode\":\"2000000053202\"}",
    "IsCondition": 1,
    "InsertDateTime": "2021-12-23 08:30:04.747",
    "SourceId": 2
  },
  {
    "AgentDateTime": "2021-12-22 07:03:02.420",
    "Id": 59,
    "VaribleId": 163,
    "Value": "{\"Name\":\"ПД0601М 694/1 от 14.12.2021\",\"Barcode\":\"2000000053257\"}",
    "IsCondition": 1,
    "InsertDateTime": "2021-12-22 07:04:02.700",
    "SourceId": 2
  },
  {
    "AgentDateTime": "2021-12-19 15:40:23.660",
    "Id": 58,
    "VaribleId": 163,
    "Value": "{\"Name\":\"ПД0601М 694/3 от 14.12.2021\",\"Barcode\":\"2000000053189\"}",
    "IsCondition": 1,
    "InsertDateTime": "2021-12-19 15:40:39.860",
    "SourceId": 2
  },
  {
    "AgentDateTime": "2021-12-19 12:57:48.790",
    "Id": 57,
    "VaribleId": 163,
    "Value": "{\"Name\":\"ПД0601М 694/3 от 14.12.2021\",\"Barcode\":\"2000000053189\"}",
    "IsCondition": 1,
    "InsertDateTime": "2021-12-19 12:58:06.623",
    "SourceId": 2
  },
  {
    "AgentDateTime": "2021-12-19 09:38:53.933",
    "Id": 56,
    "VaribleId": 163,
    "Value": "{\"Name\":\"ПД0601М 693/4 от 13.12.2021\",\"Barcode\":\"2000000053110\"}",
    "IsCondition": 1,
    "InsertDateTime": "2021-12-19 09:39:21.017",
    "SourceId": 2
  },
  {
    "AgentDateTime": "2021-12-18 11:40:01.470",
    "Id": 55,
    "VaribleId": 163,
    "Value": "{\"Name\":\"ПД0601М 682/4 от 09.12.2021\",\"Barcode\":\"2000000052755\"}",
    "IsCondition": 1,
    "InsertDateTime": "2021-12-18 11:40:35.330",
    "SourceId": 2
  },
  {
    "AgentDateTime": "2021-12-17 19:55:31.140",
    "Id": 54,
    "VaribleId": 163,
    "Value": "{\"Name\":\"ПД0601М 693/3 от 13.12.2021\",\"Barcode\":\"2000000053172\"}",
    "IsCondition": 1,
    "InsertDateTime": "2021-12-17 19:57:09.947",
    "SourceId": 2
  },
  {
    "AgentDateTime": "2021-12-17 19:55:19.173",
    "Id": 53,
    "VaribleId": 163,
    "Value": "{\"Name\":null,\"Barcode\":null}",
    "IsCondition": 1,
    "InsertDateTime": "2021-12-17 19:55:23.190",
    "SourceId": 2
  },
  {
    "AgentDateTime": "2021-12-14 19:04:49.827",
    "Id": 52,
    "VaribleId": 163,
    "Value": "{\"Name\":\"ПД0601EV 667/3 от 02.12.2021\",\"Barcode\":\"2000000052137\"}",
    "IsCondition": 1,
    "InsertDateTime": "2021-12-14 19:05:28.233",
    "SourceId": 2
  },
  {
    "AgentDateTime": "2021-12-12 19:30:07.220",
    "Id": 51,
    "VaribleId": 163,
    "Value": "{\"Name\":\"ПД0601М 673/1 от 06.12.2021\",\"Barcode\":\"2000000052380\"}",
    "IsCondition": 1,
    "InsertDateTime": "2021-12-12 19:30:25.810",
    "SourceId": 2
  },
  {
    "AgentDateTime": "2021-12-12 16:03:00.323",
    "Id": 50,
    "VaribleId": 163,
    "Value": "{\"Name\":\"ПД0601EV 667/1 от 02.12.2021\",\"Barcode\":\"2000000052182\"}",
    "IsCondition": 1,
    "InsertDateTime": "2021-12-12 16:03:32.027",
    "SourceId": 2
  },
  {
    "AgentDateTime": "2021-12-08 20:36:30.813",
    "Id": 49,
    "VaribleId": 162,
    "Value": "{\"Name\":\"ПД0601EV 666/2 от 01.12.2021\",\"Barcode\":\"2000000052069\"}",
    "IsCondition": 1,
    "InsertDateTime": "2021-12-08 20:36:46.773",
    "SourceId": 2
  },
  {
    "AgentDateTime": "2021-12-06 12:50:20.030",
    "Id": 48,
    "VaribleId": 163,
    "Value": "{\"Name\":\"ПД0601EV 654/4 от 26.11.2021\",\"Barcode\":\"2000000051598\"}",
    "IsCondition": 1,
    "InsertDateTime": "2021-12-06 12:51:22.687",
    "SourceId": 2
  },
  {
    "AgentDateTime": "2021-12-04 13:07:39.860",
    "Id": 47,
    "VaribleId": 163,
    "Value": "{\"Name\":\"ПД0601EV 654/4 от 26.11.2021\",\"Barcode\":\"2000000051598\"}",
    "IsCondition": 1,
    "InsertDateTime": "2021-12-04 13:08:10.347",
    "SourceId": 2
  },
  {
    "AgentDateTime": "2021-12-04 13:02:36.087",
    "Id": 46,
    "VaribleId": 163,
    "Value": "{\"Name\":\"ПД0601EV 654/2 от 26.11.2021\",\"Barcode\":\"2000000051550\"}",
    "IsCondition": 1,
    "InsertDateTime": "2021-12-04 13:03:30.340",
    "SourceId": 2
  },
  {
    "AgentDateTime": "2021-12-03 08:13:56.807",
    "Id": 44,
    "VaribleId": 163,
    "Value": "{\"Name\":\"ПД0601EV 655/4 от 27.11.2021\",\"Barcode\":\"2000000051734\"}",
    "IsCondition": 1,
    "InsertDateTime": "2021-12-03 08:14:31.050",
    "SourceId": 2
  },
  {
    "AgentDateTime": "2021-12-02 12:00:00.000",
    "Id": 45,
    "VaribleId": 163,
    "Value": "{\"Name\":\"ПД0601EV 655/1 от 27.11.2021\",\"Barcode\":\"2000000051581\"}",
    "IsCondition": 1,
    "InsertDateTime": "2021-12-03 15:14:49.217",
    "SourceId": 2
  }
]